wave.vcd
$date
	Fri Aug 02 16:33:29 2024
$end
$version
	ModelSim Version 10.1d
$end
$timescale
	1ps
$end
$scope module fmultiplier_tb $end
$var reg 32 ! a [31:0] $end
$var reg 32 " b [31:0] $end
$var wire 1 # z [31] $end
$var wire 1 $ z [30] $end
$var wire 1 % z [29] $end
$var wire 1 & z [28] $end
$var wire 1 ' z [27] $end
$var wire 1 ( z [26] $end
$var wire 1 ) z [25] $end
$var wire 1 * z [24] $end
$var wire 1 + z [23] $end
$var wire 1 , z [22] $end
$var wire 1 - z [21] $end
$var wire 1 . z [20] $end
$var wire 1 / z [19] $end
$var wire 1 0 z [18] $end
$var wire 1 1 z [17] $end
$var wire 1 2 z [16] $end
$var wire 1 3 z [15] $end
$var wire 1 4 z [14] $end
$var wire 1 5 z [13] $end
$var wire 1 6 z [12] $end
$var wire 1 7 z [11] $end
$var wire 1 8 z [10] $end
$var wire 1 9 z [9] $end
$var wire 1 : z [8] $end
$var wire 1 ; z [7] $end
$var wire 1 < z [6] $end
$var wire 1 = z [5] $end
$var wire 1 > z [4] $end
$var wire 1 ? z [3] $end
$var wire 1 @ z [2] $end
$var wire 1 A z [1] $end
$var wire 1 B z [0] $end
$var reg 1 C clk $end
$var reg 1 D rst $end
$scope module multiplier $end
$var wire 1 E clk $end
$var wire 1 F rst $end
$var wire 1 G a [31] $end
$var wire 1 H a [30] $end
$var wire 1 I a [29] $end
$var wire 1 J a [28] $end
$var wire 1 K a [27] $end
$var wire 1 L a [26] $end
$var wire 1 M a [25] $end
$var wire 1 N a [24] $end
$var wire 1 O a [23] $end
$var wire 1 P a [22] $end
$var wire 1 Q a [21] $end
$var wire 1 R a [20] $end
$var wire 1 S a [19] $end
$var wire 1 T a [18] $end
$var wire 1 U a [17] $end
$var wire 1 V a [16] $end
$var wire 1 W a [15] $end
$var wire 1 X a [14] $end
$var wire 1 Y a [13] $end
$var wire 1 Z a [12] $end
$var wire 1 [ a [11] $end
$var wire 1 \ a [10] $end
$var wire 1 ] a [9] $end
$var wire 1 ^ a [8] $end
$var wire 1 _ a [7] $end
$var wire 1 ` a [6] $end
$var wire 1 a a [5] $end
$var wire 1 b a [4] $end
$var wire 1 c a [3] $end
$var wire 1 d a [2] $end
$var wire 1 e a [1] $end
$var wire 1 f a [0] $end
$var wire 1 g b [31] $end
$var wire 1 h b [30] $end
$var wire 1 i b [29] $end
$var wire 1 j b [28] $end
$var wire 1 k b [27] $end
$var wire 1 l b [26] $end
$var wire 1 m b [25] $end
$var wire 1 n b [24] $end
$var wire 1 o b [23] $end
$var wire 1 p b [22] $end
$var wire 1 q b [21] $end
$var wire 1 r b [20] $end
$var wire 1 s b [19] $end
$var wire 1 t b [18] $end
$var wire 1 u b [17] $end
$var wire 1 v b [16] $end
$var wire 1 w b [15] $end
$var wire 1 x b [14] $end
$var wire 1 y b [13] $end
$var wire 1 z b [12] $end
$var wire 1 { b [11] $end
$var wire 1 | b [10] $end
$var wire 1 } b [9] $end
$var wire 1 ~ b [8] $end
$var wire 1 !! b [7] $end
$var wire 1 "! b [6] $end
$var wire 1 #! b [5] $end
$var wire 1 $! b [4] $end
$var wire 1 %! b [3] $end
$var wire 1 &! b [2] $end
$var wire 1 '! b [1] $end
$var wire 1 (! b [0] $end
$var reg 32 )! z [31:0] $end
$var reg 3 *! counter [2:0] $end
$var reg 24 +! a_m [23:0] $end
$var reg 24 ,! b_m [23:0] $end
$var reg 24 -! z_m [23:0] $end
$var reg 10 .! a_e [9:0] $end
$var reg 10 /! b_e [9:0] $end
$var reg 10 0! z_e [9:0] $end
$var reg 1 1! a_s $end
$var reg 1 2! b_s $end
$var reg 1 3! z_s $end
$var reg 50 4! product [49:0] $end
$var reg 1 5! guard_bit $end
$var reg 1 6! round_bit $end
$var reg 1 7! sticky $end
$upscope $end
$upscope $end
$enddefinitions $end
#0
$dumpvars
bx !
bx "
0C
1D
bx )!
b0 *!
bx +!
bx ,!
bx -!
bx .!
bx /!
bx 0!
x1!
x2!
x3!
bx 4!
x5!
x6!
x7!
xB
xA
x@
x?
x>
x=
x<
x;
x:
x9
x8
x7
x6
x5
x4
x3
x2
x1
x0
x/
x.
x-
x,
x+
x*
x)
x(
x'
x&
x%
x$
x#
x(!
x'!
x&!
x%!
x$!
x#!
x"!
x!!
x~
x}
x|
x{
xz
xy
xx
xw
xv
xu
xt
xs
xr
xq
xp
xo
xn
xm
xl
xk
xj
xi
xh
xg
xf
xe
xd
xc
xb
xa
x`
x_
x^
x]
x\
x[
xZ
xY
xX
xW
xV
xU
xT
xS
xR
xQ
xP
xO
xN
xM
xL
xK
xJ
xI
xH
xG
1F
0E
$end
#5
1C
1E
#10
0C
0E
#13
0D
0F
b1 *!
b0xxxxxxxxxxxxxxxxxxxxxxx +!
b0xxxxxxxxxxxxxxxxxxxxxxx ,!
#15
1C
1E
b10 *!
b1xxxxxxxxxxxxxxxxxxxxxxx +!
b1xxxxxxxxxxxxxxxxxxxxxxx ,!
#20
0C
0E
#25
1C
1E
b11 *!
#30
0C
0E
#35
1C
1E
b100 *!
#40
0C
0E
#45
1C
1E
b101 *!
#50
0C
0E
#55
1C
1E
b110 *!
#60
0C
0E
#65
1C
1E
b111 *!
#70
0C
0E
#75
1C
1E
b0 *!
#80
0C
0E
#83
b10010000101010011010100100100 !
b11000000100010010101111010000001 "
1(!
0'!
0&!
0%!
0$!
0#!
0"!
1!!
0~
1}
1|
1{
1z
0y
1x
0w
1v
0u
0t
1s
0r
0q
0p
1o
0n
0m
0l
0k
0j
0i
1h
1g
0f
0e
1d
0c
0b
1a
0`
0_
1^
0]
1\
0[
1Z
1Y
0X
0W
1V
0U
1T
0S
1R
0Q
0P
0O
0N
1M
0L
0K
1J
0I
0H
0G
#85
1C
1E
b1 *!
b101010011010100100100 +!
b10010101111010000001 ,!
b1110100101 .!
b10 /!
01!
12!
#90
0C
0E
#95
1C
1E
b10 *!
b100101010011010100100100 +!
b100010010101111010000001 ,!
#100
0C
0E
#105
1C
1E
b11 *!
#110
0C
0E
#115
1C
1E
b100 *!
13!
b1110101000 0!
b1010000000100001000010011110110111111110010010000 4!
#120
0C
0E
#125
1C
1E
b101 *!
b10100000001000010000100 -!
15!
16!
17!
#130
0C
0E
#135
1C
1E
b110 *!
b1110100111 0!
b101000000010000100001000 -!
b101000000010000100001001 -!
06!
#140
0C
0E
#145
1C
1E
b111 *!
bx01000000010000100001001 )!
bx0010011001000000010000100001001 )!
b10010011001000000010000100001001 )!
1B
0A
0@
1?
0>
0=
0<
0;
1:
09
08
07
06
15
04
03
02
01
00
0/
0.
1-
0,
0+
1*
1)
0(
0'
1&
0%
0$
1#
#150
0C
0E
#155
1C
1E
b0 *!
#160
0C
0E
#163
b10000100100001001101011000001001 !
b10110001111100000101011001100011 "
1'!
1#!
1"!
0!!
0{
0v
0s
1r
1q
1p
1n
1j
1i
0h
1f
0d
1c
0a
0^
1]
0Y
1X
1W
0V
0R
1O
0M
1L
0J
1G
#165
1C
1E
b1 *!
b1001101011000001001 +!
b11100000101011001100011 ,!
b1110001010 .!
b1111100100 /!
11!
#170
0C
0E
#175
1C
1E
b10 *!
b100001001101011000001001 +!
b111100000101011001100011 ,!
#180
0C
0E
#185
1C
1E
b11 *!
#190
0C
0E
#195
1C
1E
b100 *!
03!
b1101101111 0!
b1111100101101010111101110110101110010110111101100 4!
#200
0C
0E
#205
1C
1E
b101 *!
b11111001011010101111011 -!
#210
0C
0E
#215
1C
1E
b110 *!
b1110000010 0!
b1111 -!
16!
#220
0C
0E
#225
1C
1E
b111 *!
b10010011000000000000000000001111 )!
b10000000100000000000000000001111 )!
b100000000000000000001111 )!
b1111 )!
1A
1@
0:
05
0-
0*
0)
0&
0#
#230
0C
0E
#235
1C
1E
b0 *!
#240
0C
0E
#243
b110101110010111101100001101 !
b1000110110111111001100110001101 "
0'!
1&!
1%!
0#!
0"!
1!!
1~
0}
0|
1{
0x
1w
1v
1u
1t
1s
0q
0n
1m
1l
0j
0i
1h
0g
1d
1^
0\
1[
1Y
0W
1V
0T
1S
1R
1Q
1M
0G
#245
1C
1E
b1 *!
b1110010111101100001101 +!
b10111111001100110001101 ,!
b1110001110 .!
b1110 /!
01!
02!
#250
0C
0E
#255
1C
1E
b10 *!
b101110010111101100001101 +!
b110111111001100110001101 ,!
#260
0C
0E
#265
1C
1E
b11 *!
#270
0C
0E
#275
1C
1E
b100 *!
b1110011101 0!
b10100010000000010111000100000110100010110010100100 4!
#280
0C
0E
#285
1C
1E
b101 *!
b101000100000000101110001 -!
05!
06!
#290
0C
0E
#295
1C
1E
b110 *!
#300
0C
0E
#305
1C
1E
b111 *!
b1000100000000101110001 )!
b1110001000100000000101110001 )!
0A
0@
0?
1>
1=
1<
1:
11
1-
1)
1(
1'
#310
0C
0E
#315
1C
1E
b0 *!
#320
0C
0E
#323
b10110010110000101000010001100101 !
b10001001001101110101001000010010 "
0(!
1'!
0&!
0%!
1$!
0!!
0~
1}
0{
1x
0w
0s
1q
0p
0o
1n
0m
0l
1k
0h
1g
0c
1a
1`
0^
0]
1\
0[
0Z
0Y
0X
1W
0V
1U
0S
0R
0Q
1P
0L
1J
1I
1G
#325
1C
1E
b1 *!
b10000101000010001100101 +!
b1101110101001000010010 ,!
b1111100110 .!
b1110010011 /!
11!
12!
#330
0C
0E
#335
1C
1E
b10 *!
b110000101000010001100101 +!
b101101110101001000010010 ,!
#340
0C
0E
#345
1C
1E
b11 *!
#350
0C
0E
#355
1C
1E
b100 *!
b1101111010 0!
b10001011010010110000000001001000101010010001101000 4!
#360
0C
0E
#365
1C
1E
b101 *!
b100010110100101100000000 -!
16!
#370
0C
0E
#375
1C
1E
b110 *!
b1110000010 0!
b1000101101001011 -!
06!
#380
0C
0E
#385
1C
1E
b111 *!
b1110000000001000101101001011 )!
b100000001000101101001011 )!
b1000101101001011 )!
1A
1?
0>
0=
19
17
13
01
0-
0)
0(
0'
#390
0C
0E
#395
1C
1E
b0 *!
#400
0C
0E
#403
b111100111110001100000001 !
b110110101111100110100001101 "
1(!
0'!
1&!
1%!
0$!
1~
0}
1|
1{
0z
1w
0q
1p
1o
0n
1m
1l
0k
0g
0d
0a
0`
1^
1]
0\
1Y
1X
1V
1R
1Q
0M
0J
0I
0G
#405
1C
1E
b1 *!
b11100111110001100000001 +!
b10101111100110100001101 ,!
b1110000010 .!
b1110001110 /!
01!
02!
#410
0C
0E
#415
1C
1E
b10 *!
b111100111110001100000001 +!
b110101111100110100001101 ,!
#420
0C
0E
#425
1C
1E
b11 *!
#430
0C
0E
#435
1C
1E
b100 *!
b1100010001 0!
b11001101100101101111111100000001010101000000110100 4!
#440
0C
0E
#445
1C
1E
b101 *!
b110011011001011011111111 -!
#450
0C
0E
#455
1C
1E
b110 *!
b1110000010 0!
b0 -!
15!
#460
0C
0E
#465
1C
1E
b111 *!
b0 )!
b100000000000000000000000 )!
b0 )!
0B
0A
0?
0<
0:
09
07
03
#470
0C
0E
#475
1C
1E
b0 *!
#480
0C
0E
#483
b111011001000111111000101110110 !
b11110100011011100110100111101 "
1$!
1#!
0u
1s
0r
0p
1k
1j
0f
1e
1d
1b
1a
1`
0]
1Z
0R
0P
0O
1N
1M
1K
1J
1I
#485
1C
1E
b1 *!
b1000111111000101110110 +!
b11011100110100111101 ,!
b1111110111 .!
b1110111110 /!
#490
0C
0E
#495
1C
1E
b10 *!
b101000111111000101110110 +!
b100011011100110100111101 ,!
#500
0C
0E
#505
1C
1E
b11 *!
#510
0C
0E
#515
1C
1E
b100 *!
b1110110110 0!
b1011010110011110110110101101010000001110001111000 4!
#520
0C
0E
#525
1C
1E
b101 *!
b10110101100111101101101 -!
05!
16!
#530
0C
0E
#535
1C
1E
b110 *!
b1110110101 0!
b101101011001111011011010 -!
15!
06!
#540
0C
0E
#545
1C
1E
b111 *!
b1101011001111011011010 )!
b11010001101011001111011011010 )!
1A
1?
1>
1<
1;
19
18
17
16
13
12
10
1.
1-
1)
1'
1&
#550
0C
0E
#555
1C
1E
b0 *!
#560
0C
0E
#563
b1110110110101000101011111101101 !
b1000110001011011111011110001100 "
0(!
0$!
0#!
1!!
1}
0{
1z
1y
1q
0o
0k
0j
1h
1f
0e
1c
0b
1_
1]
1\
0Y
0W
0V
0U
1T
1R
0Q
1P
1O
0N
1L
0K
1H
#565
1C
1E
b1 *!
b10101000101011111101101 +!
b1011011111011110001100 ,!
b1101110 .!
b1101 /!
#570
0C
0E
#575
1C
1E
b10 *!
b110101000101011111101101 +!
b101011011111011110001100 ,!
#580
0C
0E
#585
1C
1E
b11 *!
#590
0C
0E
#595
1C
1E
b100 *!
b1111100 0!
b10010000010011001100000000011110110000001001110000 4!
#600
0C
0E
#605
1C
1E
b101 *!
b100100000100110011000000 -!
05!
#610
0C
0E
#615
1C
1E
b110 *!
#620
0C
0E
#625
1C
1E
b111 *!
b11010000100000100110011000000 )!
b1111101100100000100110011000000 )!
0A
0?
0>
09
06
14
03
02
00
0-
1+
1*
0)
1(
1%
1$
#630
0C
0E
#635
1C
1E
b0 *!
#640
0C
0E
#643
b1111100111111011110100111111001 !
b11100011001101110010010011000110 "
1'!
0%!
1"!
0~
0}
0z
0x
0w
1u
0s
1r
1n
0l
1i
1g
0d
1b
0]
0\
1[
0Z
1Y
1W
1V
1S
1Q
0M
1K
#645
1C
1E
b1 *!
b11111011110100111111001 +!
b1101110010010011000110 ,!
b1111010 .!
b1000111 /!
12!
#650
0C
0E
#655
1C
1E
b10 *!
b111111011110100111111001 +!
b101101110010010011000110 ,!
#660
0C
0E
#665
1C
1E
b11 *!
#670
0C
0E
#675
1C
1E
b100 *!
13!
b11000010 0!
b10110101101001101011101001001000111110101001011000 4!
#680
0C
0E
#685
1C
1E
b101 *!
b101101011010011010111010 -!
16!
#690
0C
0E
#695
1C
1E
b110 *!
#700
0C
0E
#705
1C
1E
b111 *!
b1111101101101011010011010111010 )!
b100000101101011010011010111010 )!
b10100000101101011010011010111010 )!
b10100000100000000000000000000000 )!
b11111111100000000000000000000000 )!
0<
0;
08
07
04
0.
1)
1#
#710
0C
0E
#715
1C
1E
b0 *!
#720
0C
0E
#723
b11100010111101111000010011000101 !
b11010101000100111101001010101010 "
0&!
1%!
1#!
0"!
1}
0|
1z
0y
1x
1w
0t
0q
0m
1l
1j
0i
1d
0c
0b
0a
0^
1\
0[
0Y
0X
1U
0S
1M
0L
0K
0J
1G
#725
1C
1E
b1 *!
b11101111000010011000101 +!
b100111101001010101010 ,!
b1000110 .!
b101011 /!
11!
#730
0C
0E
#735
1C
1E
b10 *!
b111101111000010011000101 +!
b100100111101001010101010 ,!
#740
0C
0E
#745
1C
1E
b11 *!
#750
0C
0E
#755
1C
1E
b100 *!
03!
b1110010 0!
b10001110111011001110110001100110110001001101001000 4!
#760
0C
0E
#765
1C
1E
b101 *!
b100011101110110011101100 -!
#770
0C
0E
#775
1C
1E
b110 *!
#780
0C
0E
#785
1C
1E
b111 *!
b11111111100011101110110011101100 )!
b11111000100011101110110011101100 )!
b1111000100011101110110011101100 )!
1@
1?
1=
1<
1;
18
17
15
14
13
11
10
1/
0*
0)
0(
0#
#790
0C
0E
#795
1C
1E
b0 *!
#800
0C
0E
#803
b1110010101011111111011111100101 !
b10111011110100100111001001110111 "
1(!
1&!
0%!
1$!
1"!
0!!
1y
0w
0v
1p
1o
1m
0l
1k
1i
0h
1a
1^
1]
1Z
1Y
1X
1S
0R
0P
1J
0G
#805
1C
1E
b1 *!
b1011111111011111100101 +!
b10100100111001001110111 ,!
b1100110 .!
b1111111000 /!
01!
#810
0C
0E
#815
1C
1E
b10 *!
b101011111111011111100101 +!
b110100100111001001110111 ,!
#820
0C
0E
#825
1C
1E
b11 *!
#830
0C
0E
#835
1C
1E
b100 *!
13!
b1011111 0!
b10010000101010000000100000001010001101010111001100 4!
#840
0C
0E
#845
1C
1E
b101 *!
b100100001010100000001000 -!
06!
#850
0C
0E
#855
1C
1E
b110 *!
#860
0C
0E
#865
1C
1E
b111 *!
b1111000100100001010100000001000 )!
b1101111000100001010100000001000 )!
b11101111000100001010100000001000 )!
0@
0=
0<
0;
08
04
01
00
0/
1.
0+
1*
1)
1(
0&
1#
#870
0C
0E
#875
1C
1E
b0 *!
